:::: Log File ::::


[25/7/2020 -- 10:50]  Info task started
[25/7/2020 -- 11:5]  restarted!
[25/7/2020 -- 11:5]  restarted!
[25/7/2020 -- 11:5]  restarted!
[25/7/2020 -- 11:5]  restarted!
[25/7/2020 -- 11:7]  restarted!
[25/7/2020 -- 11:7]  restarted!
[25/7/2020 -- 11:10]  Scripts ran on main.js
[25/7/2020 -- 11:13]  Scripts ran on main.js
[25/7/2020 -- 11:14]  Scripts ran on main.js
[25/7/2020 -- 19:43]  Scripts ran on main.js
[25/7/2020 -- 19:45]  Scripts ran on main.js
[25/7/2020 -- 19:47]  Scripts ran on main.js
[25/7/2020 -- 19:48]  Scripts ran on main.js
[25/7/2020 -- 19:48]  Scripts ran on main.js
[25/7/2020 -- 19:48]  Scripts ran on main.js
[25/7/2020 -- 19:57]  Info task started
[25/7/2020 -- 19:59]  restarted!
[25/7/2020 -- 19:59]  restarted!
[25/7/2020 -- 20:4]  Info task started
[25/7/2020 -- 20:20]  Info task started
[25/7/2020 -- 20:27]  restarted!
[25/7/2020 -- 20:27]  restarted!
[25/7/2020 -- 20:31]  Scripts ran on main.js
[25/7/2020 -- 20:31]  restarted!
[25/7/2020 -- 20:31]  restarted!
[25/7/2020 -- 20:33]  restarted!
[25/7/2020 -- 20:33]  restarted!
[25/7/2020 -- 20:34]  restarted!
[25/7/2020 -- 20:34]  restarted!
[25/7/2020 -- 20:37]  Scripts ran on main.js
[25/7/2020 -- 20:38]  Scripts ran on main.js
[25/7/2020 -- 20:38]  Scripts ran on main.js
[25/7/2020 -- 20:40]  Scripts ran on main.js
[25/7/2020 -- 20:41]  Scripts ran on main.js
[25/7/2020 -- 20:42]  Scripts ran on main.js
[26/7/2020 -- 9:24]  Scripts ran on main.js
[26/7/2020 -- 9:24]  Scripts ran on main.js
[26/7/2020 -- 9:34]  Scripts ran on main.js
[26/7/2020 -- 9:35]  Scripts ran on main.js
[26/7/2020 -- 9:37]  restarted!
[26/7/2020 -- 9:38]  restarted!
[26/7/2020 -- 9:38]  Scripts ran on main.js
[26/7/2020 -- 9:38]  Scripts ran on main.js
[26/7/2020 -- 9:39]  Scripts ran on main.js
[26/7/2020 -- 9:40]  Scripts ran on main.js
[26/7/2020 -- 9:42]  Scripts ran on main.js
[26/7/2020 -- 9:43]  Scripts ran on main.js
[26/7/2020 -- 9:43]  Scripts ran on main.js
[26/7/2020 -- 9:43]  Scripts ran on main.js
[26/7/2020 -- 9:44]  Scripts ran on main.js
[26/7/2020 -- 9:45]  Scripts ran on main.js
[26/7/2020 -- 9:45]  Scripts ran on main.js
[26/7/2020 -- 9:46]  Scripts ran on main.js
[26/7/2020 -- 9:47]  Scripts ran on main.js
[26/7/2020 -- 9:53]  Scripts ran on main.js
[26/7/2020 -- 9:54]  Scripts ran on main.js
[26/7/2020 -- 9:54]  Scripts ran on main.js
[26/7/2020 -- 9:56]  Scripts ran on main.js
[26/7/2020 -- 9:58]  Scripts ran on main.js
[26/7/2020 -- 9:58]  Scripts ran on main.js
[26/7/2020 -- 10:0]  restarted!
[26/7/2020 -- 10:0]  restarted!
[26/7/2020 -- 10:2]  Scripts ran on main.js
[26/7/2020 -- 10:2]  Scripts ran on main.js
[26/7/2020 -- 10:2]  Scripts ran on main.js
[26/7/2020 -- 10:7]  Scripts ran on main.js
[26/7/2020 -- 10:7]  restarted!
[26/7/2020 -- 10:8]  Scripts ran on main.js
[26/7/2020 -- 10:9]  Scripts ran on main.js
[26/7/2020 -- 10:9]  Scripts ran on main.js
[26/7/2020 -- 10:11]  Scripts ran on main.js
[26/7/2020 -- 10:13]  Scripts ran on main.js
[26/7/2020 -- 10:14]  Sass ran on files
[26/7/2020 -- 10:14]  Sass ran on files
[26/7/2020 -- 10:15]  Scripts ran on main.js
[26/7/2020 -- 10:15]  Scripts ran on main.js
[26/7/2020 -- 10:17]  Scripts ran on main.js
[26/7/2020 -- 10:17]  Scripts ran on main.js
[26/7/2020 -- 10:27]  Scripts ran on main.js
[26/7/2020 -- 10:32]  Scripts ran on main.js
[26/7/2020 -- 10:34]  Scripts ran on main.js
[26/7/2020 -- 10:34]  Scripts ran on main.js
[26/7/2020 -- 10:37]  Sass ran on files
[26/7/2020 -- 10:37]  Scripts ran on main.js
[26/7/2020 -- 10:39]  Scripts ran on main.js
[26/7/2020 -- 10:40]  Sass ran on files
[26/7/2020 -- 10:41]  Sass ran on files
[26/7/2020 -- 10:41]  Sass ran on files
[26/7/2020 -- 10:41]  Sass ran on files
[26/7/2020 -- 10:42]  Sass ran on files
[26/7/2020 -- 10:42]  Sass ran on files
[26/7/2020 -- 10:42]  Sass ran on files
[26/7/2020 -- 10:42]  Sass ran on files
[26/7/2020 -- 10:42]  Sass ran on files
[26/7/2020 -- 10:43]  Sass ran on files
[26/7/2020 -- 10:43]  Scripts ran on main.js
[26/7/2020 -- 10:46]  Sass ran on files
[26/7/2020 -- 10:46]  Scripts ran on main.js
[26/7/2020 -- 10:46]  Scripts ran on main.js
[26/7/2020 -- 10:47]  Scripts ran on main.js
[26/7/2020 -- 10:47]  Sass ran on files
[26/7/2020 -- 10:50]  Scripts ran on main.js
[26/7/2020 -- 10:50]  Scripts ran on main.js
[26/7/2020 -- 10:51]  Scripts ran on main.js
[26/7/2020 -- 10:52]  Sass ran on files
[26/7/2020 -- 10:52]  Sass ran on files
[26/7/2020 -- 10:53]  Scripts ran on main.js
[26/7/2020 -- 10:53]  Scripts ran on main.js
[26/7/2020 -- 10:53]  Scripts ran on main.js
[26/7/2020 -- 10:55]  Scripts ran on main.js
[26/7/2020 -- 10:56]  Scripts ran on main.js
[26/7/2020 -- 10:57]  Sass ran on files
[26/7/2020 -- 10:57]  Scripts ran on main.js
[26/7/2020 -- 10:58]  Scripts ran on main.js
[26/7/2020 -- 10:58]  Sass ran on files
[26/7/2020 -- 10:58]  Sass ran on files
[26/7/2020 -- 10:59]  Sass ran on files
[26/7/2020 -- 10:59]  Sass ran on files
[26/7/2020 -- 10:59]  Sass ran on files
[26/7/2020 -- 10:59]  Sass ran on files
[26/7/2020 -- 11:0]  Scripts ran on main.js
[26/7/2020 -- 11:0]  Sass ran on files
[26/7/2020 -- 11:0]  Sass ran on files
[26/7/2020 -- 11:0]  Sass ran on files
[26/7/2020 -- 11:0]  Sass ran on files
[26/7/2020 -- 11:0]  Sass ran on files
[26/7/2020 -- 11:0]  Sass ran on files
[26/7/2020 -- 11:3]  Scripts ran on main.js
[26/7/2020 -- 11:4]  Scripts ran on main.js
[26/7/2020 -- 11:7]  Sass ran on files
[26/7/2020 -- 11:8]  Sass ran on files
[26/7/2020 -- 11:8]  Scripts ran on main.js
[26/7/2020 -- 11:11]  Scripts ran on main.js
[26/7/2020 -- 11:12]  Scripts ran on main.js
[26/7/2020 -- 11:12]  Scripts ran on main.js
[26/7/2020 -- 11:13]  Scripts ran on main.js
[26/7/2020 -- 11:13]  Scripts ran on main.js
[26/7/2020 -- 11:14]  Scripts ran on main.js
[26/7/2020 -- 11:15]  Scripts ran on main.js
[26/7/2020 -- 11:15]  Scripts ran on main.js
[26/7/2020 -- 11:16]  Scripts ran on main.js
[26/7/2020 -- 11:16]  Scripts ran on main.js
[26/7/2020 -- 11:17]  Scripts ran on main.js
[26/7/2020 -- 11:18]  Scripts ran on main.js
[26/7/2020 -- 11:19]  Scripts ran on main.js
[26/7/2020 -- 11:21]  Scripts ran on main.js
[26/7/2020 -- 11:22]  Scripts ran on main.js
[26/7/2020 -- 11:22]  Scripts ran on main.js
[26/7/2020 -- 11:22]  Scripts ran on main.js
[26/7/2020 -- 11:24]  Scripts ran on main.js
[26/7/2020 -- 11:26]  Scripts ran on main.js
[26/7/2020 -- 11:27]  Scripts ran on main.js
[26/7/2020 -- 11:31]  Scripts ran on main.js
[26/7/2020 -- 11:32]  Scripts ran on main.js
[26/7/2020 -- 11:34]  Scripts ran on main.js
[26/7/2020 -- 11:35]  Sass ran on files
[26/7/2020 -- 11:35]  Scripts ran on main.js
[26/7/2020 -- 11:41]  Scripts ran on main.js
[26/7/2020 -- 11:42]  Scripts ran on main.js
[26/7/2020 -- 11:43]  Scripts ran on main.js
[26/7/2020 -- 11:43]  Scripts ran on main.js
[26/7/2020 -- 11:44]  Scripts ran on main.js
[26/7/2020 -- 11:44]  Scripts ran on main.js
[26/7/2020 -- 11:45]  Scripts ran on main.js
[26/7/2020 -- 11:50]  Scripts ran on main.js
[26/7/2020 -- 11:54]  restarted!
[26/7/2020 -- 11:55]  Scripts ran on main.js
[26/7/2020 -- 11:55]  Sass ran on files
[26/7/2020 -- 11:57]  Scripts ran on main.js
[26/7/2020 -- 11:59]  Sass ran on files
[26/7/2020 -- 11:59]  Scripts ran on main.js
[26/7/2020 -- 12:3]  Sass ran on files
[26/7/2020 -- 12:3]  Scripts ran on main.js
[26/7/2020 -- 12:3]  Sass ran on files
[26/7/2020 -- 12:4]  Sass ran on files
[26/7/2020 -- 12:6]  Scripts ran on main.js
[26/7/2020 -- 12:6]  Scripts ran on main.js
[26/7/2020 -- 12:8]  Scripts ran on main.js
[26/7/2020 -- 12:8]  Sass ran on files
[26/7/2020 -- 12:10]  Scripts ran on main.js
[26/7/2020 -- 13:58]  Info task started
[26/7/2020 -- 13:59]  Sass ran on files
[26/7/2020 -- 13:59]  Sass ran on files
[26/7/2020 -- 13:59]  Sass ran on files
[26/7/2020 -- 14:0]  Scripts ran on main.js
[26/7/2020 -- 14:0]  Scripts ran on main.js
[26/7/2020 -- 14:1]  Scripts ran on main.js
[26/7/2020 -- 14:1]  Scripts ran on main.js
[26/7/2020 -- 14:2]  Scripts ran on main.js
[26/7/2020 -- 14:5]  Scripts ran on main.js
[26/7/2020 -- 14:5]  Scripts ran on main.js
[26/7/2020 -- 14:6]  Scripts ran on main.js
[26/7/2020 -- 14:6]  Scripts ran on main.js
[26/7/2020 -- 14:10]  Sass ran on files
[26/7/2020 -- 14:12]  Sass ran on files
[26/7/2020 -- 14:20]  Scripts ran on main.js
[26/7/2020 -- 14:20]  Scripts ran on main.js
[26/7/2020 -- 14:22]  Scripts ran on main.js
[26/7/2020 -- 14:23]  Scripts ran on main.js
[26/7/2020 -- 14:24]  Scripts ran on main.js
[26/7/2020 -- 14:24]  Scripts ran on main.js
[26/7/2020 -- 14:26]  Scripts ran on main.js
[26/7/2020 -- 14:26]  Scripts ran on main.js
[26/7/2020 -- 14:26]  Scripts ran on main.js
[26/7/2020 -- 14:27]  Scripts ran on main.js
[26/7/2020 -- 14:28]  Scripts ran on main.js
[26/7/2020 -- 14:28]  restarted!
[26/7/2020 -- 14:28]  Scripts ran on main.js
[26/7/2020 -- 14:31]  restarted!
[26/7/2020 -- 14:32]  Scripts ran on main.js
[26/7/2020 -- 14:33]  Scripts ran on main.js
[26/7/2020 -- 14:34]  Scripts ran on main.js
[26/7/2020 -- 14:37]  Scripts ran on main.js
[26/7/2020 -- 14:47]  Scripts ran on main.js
[26/7/2020 -- 14:47]  Scripts ran on main.js
[26/7/2020 -- 14:48]  Scripts ran on main.js
[26/7/2020 -- 14:50]  Scripts ran on main.js
[26/7/2020 -- 14:51]  Scripts ran on main.js
[26/7/2020 -- 14:53]  Scripts ran on main.js
[26/7/2020 -- 14:53]  Scripts ran on main.js
[26/7/2020 -- 14:55]  Scripts ran on main.js
[26/7/2020 -- 14:55]  Scripts ran on main.js
[26/7/2020 -- 14:56]  Scripts ran on main.js
[26/7/2020 -- 14:56]  Scripts ran on main.js
[26/7/2020 -- 14:58]  Scripts ran on main.js
[26/7/2020 -- 14:59]  restarted!
[26/7/2020 -- 14:59]  Scripts ran on main.js
[26/7/2020 -- 15:0]  restarted!
[26/7/2020 -- 15:2]  Scripts ran on main.js
[26/7/2020 -- 15:5]  restarted!
[26/7/2020 -- 15:5]  Scripts ran on main.js
[26/7/2020 -- 15:6]  restarted!
[26/7/2020 -- 15:6]  restarted!
[26/7/2020 -- 15:6]  restarted!
[26/7/2020 -- 15:6]  restarted!
[26/7/2020 -- 15:7]  restarted!
[26/7/2020 -- 15:8]  restarted!
[26/7/2020 -- 15:10]  restarted!
[26/7/2020 -- 15:10]  restarted!
[26/7/2020 -- 15:12]  restarted!
[26/7/2020 -- 15:12]  restarted!
[26/7/2020 -- 15:12]  restarted!
[26/7/2020 -- 15:12]  restarted!
[26/7/2020 -- 15:13]  restarted!
[26/7/2020 -- 15:14]  Info task started
[26/7/2020 -- 15:15]  restarted!
[26/7/2020 -- 15:15]  restarted!
[26/7/2020 -- 15:15]  restarted!
[26/7/2020 -- 15:15]  restarted!
[26/7/2020 -- 15:15]  restarted!
[26/7/2020 -- 15:15]  restarted!
[26/7/2020 -- 15:19]  restarted!
[26/7/2020 -- 15:19]  restarted!
[26/7/2020 -- 15:19]  restarted!
[26/7/2020 -- 15:19]  restarted!
[26/7/2020 -- 15:20]  restarted!
[26/7/2020 -- 15:20]  restarted!
[26/7/2020 -- 15:21]  restarted!
[26/7/2020 -- 15:21]  restarted!
[26/7/2020 -- 15:22]  restarted!
[26/7/2020 -- 15:23]  restarted!
[26/7/2020 -- 15:23]  restarted!
[26/7/2020 -- 15:23]  restarted!
[26/7/2020 -- 15:23]  restarted!
[26/7/2020 -- 15:24]  Info task started
[26/7/2020 -- 15:25]  Scripts ran on main.js
[26/7/2020 -- 15:26]  Scripts ran on main.js
[26/7/2020 -- 15:29]  Scripts ran on main.js
[26/7/2020 -- 15:30]  restarted!
[26/7/2020 -- 15:30]  restarted!
[26/7/2020 -- 15:31]  Scripts ran on main.js
[26/7/2020 -- 15:32]  Scripts ran on main.js
[26/7/2020 -- 15:32]  Scripts ran on main.js
[26/7/2020 -- 15:33]  Scripts ran on main.js
[26/7/2020 -- 15:34]  Scripts ran on main.js
[26/7/2020 -- 15:34]  Scripts ran on main.js
[26/7/2020 -- 15:34]  Scripts ran on main.js
[26/7/2020 -- 15:35]  restarted!
[26/7/2020 -- 15:36]  Scripts ran on main.js
[26/7/2020 -- 15:36]  Scripts ran on main.js
[26/7/2020 -- 15:36]  restarted!
[26/7/2020 -- 15:36]  restarted!
[26/7/2020 -- 15:36]  restarted!
[26/7/2020 -- 15:37]  restarted!
[26/7/2020 -- 15:37]  restarted!
[26/7/2020 -- 15:37]  restarted!
[26/7/2020 -- 15:38]  restarted!
[26/7/2020 -- 15:38]  restarted!
[26/7/2020 -- 15:38]  restarted!
[26/7/2020 -- 15:38]  restarted!
[26/7/2020 -- 15:38]  restarted!
[26/7/2020 -- 15:38]  restarted!
[26/7/2020 -- 15:38]  restarted!
[26/7/2020 -- 15:39]  restarted!
[26/7/2020 -- 15:39]  Scripts ran on main.js
[26/7/2020 -- 15:40]  Scripts ran on main.js
[26/7/2020 -- 15:42]  Scripts ran on main.js
[26/7/2020 -- 15:42]  Scripts ran on main.js
[26/7/2020 -- 15:42]  Scripts ran on main.js
[26/7/2020 -- 15:43]  Scripts ran on main.js
[26/7/2020 -- 15:44]  Scripts ran on main.js
[26/7/2020 -- 15:44]  restarted!
[26/7/2020 -- 15:45]  Scripts ran on main.js
[26/7/2020 -- 15:45]  Scripts ran on main.js
[26/7/2020 -- 15:49]  Scripts ran on main.js
[26/7/2020 -- 15:49]  Scripts ran on main.js
[26/7/2020 -- 15:49]  restarted!
[26/7/2020 -- 15:50]  Scripts ran on main.js
[26/7/2020 -- 15:50]  restarted!
[26/7/2020 -- 15:50]  restarted!
[26/7/2020 -- 15:53]  restarted!
[26/7/2020 -- 15:53]  restarted!
[26/7/2020 -- 15:54]  Scripts ran on main.js
[26/7/2020 -- 15:55]  Scripts ran on main.js
[26/7/2020 -- 15:55]  Scripts ran on main.js
[26/7/2020 -- 15:55]  restarted!
[26/7/2020 -- 15:56]  restarted!
[26/7/2020 -- 15:57]  restarted!
[26/7/2020 -- 15:57]  restarted!
[26/7/2020 -- 15:57]  restarted!
[26/7/2020 -- 15:58]  Scripts ran on main.js
[26/7/2020 -- 15:58]  Scripts ran on main.js
[26/7/2020 -- 16:0]  Scripts ran on main.js
[26/7/2020 -- 16:0]  restarted!
[26/7/2020 -- 16:1]  restarted!
[26/7/2020 -- 16:1]  restarted!
[26/7/2020 -- 16:3]  Scripts ran on main.js
[26/7/2020 -- 16:3]  Scripts ran on main.js
[26/7/2020 -- 16:3]  Scripts ran on main.js
[26/7/2020 -- 16:4]  Scripts ran on main.js